Name,Age,Sex,Division,BodyweightKg,WeightClassKg,Squat1Kg,Squat2Kg,Squat3Kg,Squat4Kg,Best3SquatKg,Bench1Kg,Bench2Kg,Bench3Kg,Bench4Kg,Best3BenchKg,Deadlift1Kg,Deadlift2Kg,Deadlift3Kg,Deadlift4Kg,Best3DeadliftKg,TotalKg,Event,Equipment,Place
Ross Parker,18,M,Teen 18-19,69.1,75,,,,,,,,,,,175,182.5,-190,,182.5,182.5,D,Raw,1
Ian Bennett,35,M,Submasters 35-39,73.6,75,155,-160,162.5,,162.5,105,110,-115,,110,215,225,228.5,,228.5,501,SBD,Raw,1
Andrew Hanson,45,M,Masters 45-49,73.9,75,145,155,160,,160,115,120,-122.5,,120,155,-165,-165,,155,435,SBD,Raw,1
Dylan Burke,15,M,Teen 14-15,81.1,82.5,-97.5,-100,-100,,,52.5,62.5,70,-82.5,70,140,145,150,-155,150,220,SBD,Raw,1
Gordon Macinnes,45,M,Masters 45-49,77.3,82.5,90,115,120,,120,90,110,-115,,110,170,180,-190,,180,410,SBD,Raw,1
Aidan Turner,14,M,Teen 14-15,83.5,90,115,120,130,140,130,-85,-85,85,,85,-140,140,150,157.5,150,365,SBD,Raw,2
Tyler Oakenfold,19,M,Teen 18-19,84.5,90,120,127.5,137.5,,137.5,85,90,-100,,90,177.5,187.5,200,,200,427.5,SBD,Raw,1
Kevin Weiss,46,M,Masters 45-49,88.9,90,190,200,210,,210,140,145,150,,150,210,225,235,,235,595,SBD,Raw,1
Shayne Parker,49,M,Masters 45-49,89.5,90,,,,,,,,,,,200,215,227.5,-230,227.5,227.5,D,Raw,1
Chris Huband,25,M,Open,97.4,100,182.5,202.5,220,,220,137.5,145,152.5,,152.5,217.5,237.5,250,,250,622.5,SBD,Raw,1
Dorrell Petties-Dahmer,28,M,Open,108.8,110,205,215,227.5,,227.5,152.5,-157.5,-157.5,,152.5,300,310.5,320,-325,320,700,SBD,Raw,1
Spence Howson,19,M,Teen 18-19,124.9,125,195,-200,,,195,130,-135,-135,,130,245,-250,-250,,245,570,SBD,Raw,1
John Giffen,46,M,Masters 45-49,122.5,125,210,220,230,,230,220,-228,,,220,230,240,-250,,240,690,SBD,Raw,1
Alex McLeod,28,M,Open,135.3,140,137.5,-155,170,,170,-92.5,105,112.5,,112.5,165,185,200,,200,482.5,SBD,Raw,1
Garry Coates,47,M,Masters 45-49,137.9,140,205,-210,,,205,160,170,-172.5,,170,220,227.5,235,,235,610,SBD,Raw,1
Wally Schoffer,55,M,Masters 55-59,136.5,140,,,,,,142.5,147.5,150,155,150,190,200,205,,205,355,BD,Raw,1
Dillon Childs,24,M,Classic Juniors 20-24,66.9,67.5,162.5,175,185,,185,95,-102.5,-102.5,,95,157.5,177.5,197.5,,197.5,477.5,SBD,Raw,1
Ryan Bell,19,M,Classic Teen 18-19,72.2,75,167.5,172.5,-175,,172.5,100,105,110,,110,170,185,192.5,,192.5,475,SBD,Raw,1
Tristan Gillespie,23,M,Classic Juniors 20-24,73.5,75,152.5,-165,165,,165,97.5,105,112.5,,112.5,165,177.5,190,,190,467.5,SBD,Raw,2
Jim Haskayne,54,M,Classic Masters 50-54,89.7,90,177.5,187.5,-190.5,,187.5,115,122.5,-127.5,,122.5,212.5,230,-240,,230,540,SBD,Raw,1
Scott Little,23,M,Classic Juniors 20-24,104.5,110,215,230,-232.5,,230,-142.5,145,-157.5,,145,250,-265,-265,,250,625,SBD,Raw,1
Arshia Arshadi,25,M,Classic Open,108.4,110,155,165,170,,170,137.5,142.5,147.5,,147.5,205,220,230,,230,547.5,SBD,Raw,1
James Moldowan,29,M,Classic Open,107.6,110,150,160,-165,,160,102.5,107.5,110,,110,165,175,185,,185,455,SBD,Raw,2
Wade Edwards,48,M,Classic Masters 45-49,109.9,110,145,-150,-160,,145,130,-137.5,137.5,,137.5,185,195,205,,205,487.5,SBD,Raw,1
Illya Ivanov,29,M,Classic Open,119.3,125,167.5,180,190,,190,115,122.5,125,,125,175,192.5,202.5,,202.5,517.5,SBD,Raw,1
Randy Sparks,61,M,Classic Masters 60-64,119.8,125,180,192.5,202.5,210,202.5,90,95,97.5,,97.5,200,210,220,,220,520,SBD,Raw,1
Gloria Cheung,29,F,Open,50.7,52,87.5,95,100,,100,45,50,-52.5,,50,92.5,100,107.5,,107.5,257.5,SBD,Raw,1
Kennedy Macinnes,11,F,Youth,58.5,60,30,-32.5,-32.5,,30,20,22.5,-27.5,,22.5,40,55,-68,,55,107.5,SBD,Raw,1
Aspen Parker,15,F,Teen 14-15,58.8,60,,,,,,30,40.5,-43.5,,40.5,65,80,95,100.5,95,135.5,BD,Raw,1
Genevieve Horn,15,F,Teen 14-15,61.7,67.5,60,-65,72.5,-75,72.5,35,40,-42.5,,40,85,95,100,101.5,100,212.5,SBD,Raw,1
Hayden Murphy #2,18,F,Teen 18-19,66.4,67.5,45,50,52.5,,52.5,-35,37.5,-42.5,,37.5,70,75,82.5,,82.5,172.5,SBD,Raw,1
Leah Cameron,,F,Open,67.2,67.5,120,-130,130,,130,65,72.5,-77.5,,72.5,125,137.5,145,,145,347.5,SBD,Raw,2
Erin Matheson,27,F,Open,64.4,67.5,105,117.5,122.5,,122.5,65,70,72.5,,72.5,142.5,157.5,165,,165,360,SBD,Raw,1
Lisa Szabon-Smith,36,F,Submasters 35-39,71.4,75,146,150,-152.5,,150,80,-82.5,-82.5,,80,158,160,-165,,160,390,SBD,Raw,1
Selena Clauson,49,F,Masters 45-49,73.1,75,85,92.5,-97.5,,92.5,50,55,60,,60,105,112.5,120,,120,272.5,SBD,Raw,1
Lynne Courtnage-Coolen,60,F,Masters 60-64,72.8,75,90,95,105,112.5,105,37.5,42.5,-45,,42.5,100,117.5,130,136.5,130,277.5,SBD,Raw,1
Amanda Forsyth,23,F,Juniors 20-24,82.4,82.5,,,,,,37.5,42.5,47.5,,47.5,75,82.5,87.5,,87.5,135,BD,Raw,1
Courtney Van Beers,27,F,Open,77.6,82.5,102.5,110,-120,,110,55,-57.5,-60,,55,140,-147.5,-147.5,,140,305,SBD,Raw,1
Marie-Anne Sylvie Roche,35,F,Submasters 35-39,75.3,82.5,82.5,95,-102.5,,95,47.5,55,62.5,,62.5,82.5,100,110,,110,267.5,SBD,Raw,1
Christina Ryan #2,43,F,Masters 40-44,81.6,82.5,55,65,75,,75,37.5,42.5,-47.5,,42.5,85,95,-105,,95,212.5,SBD,Raw,1
Tracey Ridgway,51,F,Masters 50-54,82,82.5,75,82.5,-92.5,,82.5,40,47.5,-52.5,,47.5,102.5,110,-117.5,,110,240,SBD,Raw,1
Sharalee Bustamante,30,F,Open,112.3,90+,155,162.5,-165,167.5,162.5,-70,70,-77.5,,70,145,155,160,,160,392.5,SBD,Raw,1
Sheryl Malinowski,43,F,Masters 40-44,92.3,90+,115,-120,-120,,115,65,-70,-70,,65,120,130,140,-148,140,320,SBD,Raw,1
Terra MacKeigan,30,F,Classic Open,58.1,60,107.5,110,115,,115,-52.5,55,57.5,,57.5,110,120,-137.5,,120,292.5,SBD,Raw,1
Alyssa Coulas,24,F,Classic Juniors 20-24,67.5,67.5,75,82.5,87.5,,87.5,52.5,57.5,60,,60,90,100,-107.5,,100,247.5,SBD,Raw,1
Jelena Dyck,30,F,Classic Open,70.6,75,102.5,105,107.5,,107.5,62.5,67.5,-70,,67.5,125,132.5,137.5,,137.5,312.5,SBD,Raw,1
