OPL Format v1,Submit by email:,issues@openpowerlifting.org

Federation,Date,MeetCountry,MeetState,MeetTown,MeetName
KNKF-SP,2023-02-25,Netherlands,,Geldrop,Equipped TOPFIT Cup

Place,Name,Sex,BirthDate,BirthYear,Equipment,Division,Country,BodyweightKg,WeightClassKg,Squat1Kg,Squat2Kg,Squat3Kg,Best3SquatKg,Bench1Kg,Bench2Kg,Bench3Kg,Best3BenchKg,Deadlift1Kg,Deadlift2Kg,Deadlift3Kg,Best3DeadliftKg,TotalKg,Event,Instagram
1,Joost de Groot,M,,1990,Single-ply,Open,Netherlands,91,93,230,240,250,250,145,150,155,155,230,260,-277.5,260,665,SBD
2,Igor Halink,M,,1989,Single-ply,Open,Netherlands,92.2,93,190,205,215,215,130,135,140,140,210,230,240,240,595,SBD,iggy_meister
3,Theo Dijkstra,M,,1980,Single-ply,Open,Netherlands,92.2,93,-190,205,220,220,130,-135,-135,130,200,215,-225,215,565,SBD
4,Neil Commandeur,M,,1979,Single-ply,Open,Netherlands,85.8,93,165,175,185,185,-130,130,137.5,137.5,180,195,205,205,527.5,SBD
5,Wim Bevers,M,,1960,Single-ply,Open,Netherlands,93,93,170,180,190,190,-117.5,117.5,125,125,170,190,200,200,515,SBD
1,Sven den Houting,M,,1976,Single-ply,Open,Netherlands,98.6,105,280,290,,290,-175,-175,175,175,230,245,-255,245,710,SBD
2,Jochem Schaap,M,,1995,Single-ply,Open,Netherlands,102.7,105,-240,240,-250,240,-200,-200,200,200,180,200,-230,200,640,SBD,yoghurt_sheep
3,Maxim Janssens,M,,1989,Single-ply,Open,Netherlands,103.4,105,-205,210,225,225,-125,125,-132.5,125,160,175,195,195,545,SBD
1,Wim Wamsteeker,M,,1969,Single-ply,Open,Netherlands,117.8,120,-215,-227.5,227.5,227.5,165,170,175,175,220,237.5,-247.5,237.5,640,SBD,philiftsophy
