OPL Format v1,Submit by email:,issues@openpowerlifting.org

Federation,Date,MeetCountry,MeetState,MeetTown,MeetName
KNKF-SP,2023-02-25,Netherlands,,Geldrop,Equipped TOPFIT Cup

Place,Name,Sex,BirthDate,BirthYear,Equipment,Division,Country,BodyweightKg,WeightClassKg,Bench1Kg,Bench2Kg,Bench3Kg,Best3BenchKg,TotalKg,Event,Instagram
1,Paul den Ouden,M,,1954,Single-ply,Open,Netherlands,99.5,105,160,-167.5,167.5,167.5,167.5,B
1,Michael Freriks,M,,1993,Single-ply,Open,Netherlands,119.6,120,-220,220,-225,220,220,B,sir_benchalot
