Place,Name,Sex,BirthDate,State,Equipment,Division,BodyweightKg,WeightClassKg,Squat1Kg,Squat2Kg,Squat3Kg,Best3SquatKg,Bench1Kg,Bench2Kg,Bench3Kg,Best3BenchKg,Deadlift1Kg,Deadlift2Kg,Deadlift3Kg,Best3DeadliftKg,TotalKg,Event
1,Erin Hall,F,1979-04-05,IN,Wraps,F_MCR_1_APF,127.23,110+,92.99,-113.4,-124.74,92.99,61.23,70.31,-77.11,70.31,142.88,165.56,-181.44,165.56,328.85,SBD
1,Laura Ward,F,1987-03-12,IN,Wraps,F_OCR_APF,83.51,90,74.84,83.91,-92.99,83.91,54.43,61.23,63.5,63.5,111.13,120.2,-127.01,120.2,267.62,SBD
1,Alexa Ton,F,2001-10-29,,Wraps,F_JCR_APF,50.35,52,95.25,102.06,-108.86,102.06,49.9,54.43,-61.23,54.43,106.59,113.4,124.74,124.74,281.23,SBD
1,Chelsea Mathews,F,1983-05-04,IN,Wraps,F_MCR_1_APF,86.18,90,138.35,147.42,156.49,156.49,81.65,86.18,90.72,90.72,170.1,181.44,192.78,192.78,439.98,SBD
1,Beverly Bechtel,F,1955-02-14,IN,Wraps,F_MCR_6_APF,58.51,60,36.29,40.82,-45.36,40.82,29.48,31.75,-34.02,31.75,61.23,63.5,68.04,68.04,140.61,SBD
1,Stacey Heckman,F,1982-12-29,IN,Wraps,F_OCR_APF,58.06,60,-99.79,104.33,-111.13,104.33,45.36,49.9,-56.7,49.9,117.93,129.27,136.08,136.08,290.3,SBD
1,Briana Dillow,F,1999-02-08,IN,Wraps,F_OCR_APF,65.54,67.5,108.86,115.67,117.93,117.93,38.56,40.82,-43.09,40.82,129.27,138.35,142.88,142.88,301.64,SBD
1,Rebecca Forbes,F,1998-05-28,IN,Wraps,F_OCR_APF,74.39,75,106.59,113.4,117.93,117.93,72.57,77.11,81.65,81.65,158.76,172.37,183.7,183.7,383.29,SBD
2,Kara Brinn,F,1995-05-12,IN,Wraps,F_OCR_APF,73.8,75,61.23,-74.84,-83.91,61.23,43.09,45.36,47.63,47.63,70.31,83.91,95.25,95.25,204.12,SBD
1,Bernadine Hauerwas,F,1996-09-05,IN,Wraps,F_OCR_APF,117.48,110+,154.22,163.29,170.1,170.1,68.04,79.38,86.18,86.18,165.56,174.63,183.7,183.7,439.98,SBD
2,Cheyenne R Carr,F,1995-12-15,IN,Wraps,F_OCR_APF,120.43,110+,-106.59,108.86,115.67,115.67,43.09,61.23,65.77,65.77,127.01,138.35,142.88,142.88,324.32,SBD
1,Meghan Farris,F,1986-07-18,IN,Wraps,F_SCR_APF,112.26,110+,-97.52,102.06,104.33,104.33,49.9,56.7,61.23,61.23,106.59,117.93,127.01,127.01,292.57,SBD
1,Payton Mundt,F,2006-07-31,IN,Wraps,F_TCR_2_APF,98.66,100,151.95,165.56,-174.63,165.56,74.84,83.91,-86.18,83.91,151.95,170.1,-183.7,170.1,419.57,SBD
1,Beverly Bechtel,F,1955-02-14,IN,Raw,F_MR_6_APF,58.51,60,,,,,29.48,31.75,-34.02,31.75,61.23,63.5,68.04,68.04,99.79,BD
1,Brenan Stanley,M,2005-04-11,IN,Wraps,M_TCR_3_APF,128.37,140,-124.74,124.74,138.35,138.35,86.18,97.52,104.33,104.33,206.38,222.26,233.6,233.6,476.27,SBD
1,Jeremiah Corum,M,1977-04-13,IN,Wraps,M_MCR_2_APF,108.18,110,174.63,185.97,-197.31,185.97,136.08,147.42,158.76,158.76,217.72,244.94,-251.74,244.94,589.67,SBD
1,Larry Adelsberger,M,1949-03-03,IN,Wraps,M_MCR_7_APF,90.95,100,88.45,-92.99,-95.25,88.45,65.77,70.31,-74.84,70.31,99.79,104.33,-108.86,104.33,263.08,SBD
1,Billy Heller,M,1985-12-24,IN,Wraps,M_OCR_APF,88.9,90,195.04,-208.65,208.65,208.65,188.24,-206.38,-206.38,188.24,238.14,254.01,-449.06,254.01,650.91,SBD
5,Dylan Ricker,M,1997-10-29,IN,Wraps,M_OCR_APF,88.22,90,165.56,174.63,-183.7,174.63,120.2,-129.27,-129.27,120.2,174.63,183.7,197.31,197.31,492.15,SBD
3,Daniel Haines,M,2002-10-17,IN,Wraps,M_OCR_APF,109.77,110,-204.12,215.46,-226.8,215.46,140.61,149.69,154.22,154.22,238.14,249.48,-260.82,249.48,619.15,SBD
4,Duncan Keller,M,1985-12-21,IN,Wraps,M_OCR_APF,103.74,110,-190.51,195.04,-206.38,195.04,111.13,115.67,-120.2,115.67,192.78,210.92,-226.8,210.92,521.63,SBD
1,Garrett Young,M,2000-06-30,IN,Wraps,M_OCR_APF,118.39,125,190.51,217.72,-226.8,217.72,-117.93,133.81,-142.88,133.81,215.46,240.4,-256.28,240.4,591.94,SBD
3,Brandon Peck,M,1998-08-31,IN,Wraps,M_OCR_APF,125.87,140,215.46,-229.06,229.06,229.06,161.03,170.1,-181.44,170.1,263.08,274.42,283.5,283.5,682.66,SBD
1,Joe Barnes,M,1998-12-12,IN,Wraps,M_OCR_APF,149.23,140+,251.74,-260.82,-451.32,251.74,179.17,-192.78,192.78,192.78,263.08,-274.42,-274.42,263.08,707.6,SBD
2,Oliver Cracknell,M,1992-08-25,IN,Wraps,M_OCR_APF,152.54,140+,210.92,219.99,238.14,238.14,-165.56,165.56,-181.44,165.56,235.87,-256.28,-274.42,235.87,639.57,SBD
1,Sam Laughlin,M,1984-09-20,IN,Wraps,M_SCR_APF,86.18,90,-188.24,188.24,-449.06,188.24,133.81,-142.88,-142.88,133.81,229.06,-449.06,-449.06,229.06,551.11,SBD
1,Victor O'dell,M,2008-04-10,IN,Wraps,M_TCR_1_APF,55.11,56,83.91,97.52,-449.06,97.52,52.16,-61.23,-61.23,52.16,129.27,145.15,-154.22,145.15,294.84,SBD
1,Tyler Johnson,M,2006-02-22,IN,Wraps,M_TCR_2_APF,86.18,90,215.46,224.53,231.33,231.33,115.67,124.74,129.27,129.27,215.46,231.33,240.4,240.4,601.01,SBD
1,Joe Lewis #3,M,1982-09-07,IN,Wraps,M_MCR_1_APF,107.95,110,219.99,-235.87,-235.87,219.99,161.03,167.83,-172.37,167.83,238.14,254.01,-260.82,254.01,641.83,SBD
1,Wes Kania,M,1982-04-09,IN,Wraps,M_MCR_1_APF,128.82,140,181.44,-190.51,-190.51,181.44,133.81,136.08,-140.61,136.08,181.44,204.12,226.8,226.8,544.31,SBD
1,Casimer Kroll,M,1982-08-09,IN,Wraps,M_MCR_1_APF,150.82,140+,226.8,-240.4,240.4,240.4,149.69,161.03,170.1,170.1,219.99,233.6,244.94,244.94,655.44,SBD
2,Eric Yoshimura,M,1989-04-20,IN,Wraps,M_OCR_APF,88.77,90,231.33,-256.28,-256.28,231.33,142.88,154.22,-163.29,154.22,235.87,263.08,-274.42,263.08,648.64,SBD
3,Oliver Mepham,M,1997-04-16,IN,Wraps,M_OCR_APF,88.63,90,201.85,213.19,-224.53,213.19,133.81,142.88,-149.69,142.88,208.65,-226.8,238.14,238.14,594.21,SBD
4,Jordan Runge,M,1998-01-24,IN,Wraps,M_OCR_APF,89.13,90,-192.78,206.38,-224.53,206.38,117.93,-133.81,-133.81,117.93,199.58,219.99,-229.06,219.99,544.31,SBD
2,Jason Garrett,M,1991-09-17,IN,Wraps,M_OCR_APF,98.61,100,210.92,226.8,-235.87,226.8,151.95,158.76,-161.03,158.76,265.35,278.96,294.84,294.84,680.39,SBD
3,Liam Petretta,M,1998-05-30,IN,Wraps,M_OCR_APF,92.99,100,-204.12,-213.19,213.19,213.19,120.2,127.01,136.08,136.08,238.14,249.48,272.16,272.16,621.42,SBD
4,Michael Rumancik,M,1993-06-28,IN,Wraps,M_OCR_APF,95.71,100,183.7,192.78,204.12,204.12,136.08,142.88,149.69,149.69,183.7,201.85,224.53,224.53,578.33,SBD
5,JP Benitez,M,1983-05-08,IN,Wraps,M_OCR_APF,95.66,100,190.51,-213.19,-213.19,190.51,115.67,-127.01,-449.06,115.67,240.4,-258.55,-258.55,240.4,546.58,SBD
1,Joe Lewis #3,M,1982-09-07,IN,Wraps,M_OCR_APF,107.95,110,219.99,-235.87,-235.87,219.99,161.03,167.83,-172.37,167.83,238.14,254.01,-260.82,254.01,641.83,SBD
DQ,Chase Behrman,M,1992-06-11,IN,Wraps,M_OCR_APF,108.64,110,265.35,-278.96,-451.32,265.35,-170.1,-449.06,-449.06,,-260.82,-449.06,-449.06,,,SBD
2,Bradley Davis #3,M,1989-12-18,IN,Wraps,M_OCR_APF,127.69,140,335.66,349.27,-362.87,349.27,192.78,-199.58,-199.58,192.78,294.84,306.17,-317.51,306.17,848.22,SBD
3,Rene Carr,M,1992-08-25,IN,Wraps,M_OCR_APF,149.01,140+,201.85,-213.19,226.8,226.8,136.08,140.61,-142.88,140.61,226.8,240.4,-251.74,240.4,607.81,SBD
1,Phillip Morrison,M,1987-11-22,IN,Wraps,M_SCR_APF,118.93,125,188.24,197.31,201.85,201.85,127.01,133.81,138.35,138.35,226.8,242.67,249.48,249.48,589.67,SBD
1,Travis Johnson,M,2007-11-20,IN,Wraps,M_TCR_1_APF,77.11,82.5,129.27,147.42,-167.83,147.42,74.84,92.99,-111.13,92.99,151.95,174.63,183.7,183.7,424.11,SBD
2,Alexander Meadows,M,2008-12-16,IN,Sleeves,M_TCR_1_APF,79.61,82.5,142.88,-156.49,158.76,158.76,70.31,81.65,-88.45,81.65,142.88,158.76,176.9,176.9,417.3,SBD
1,Aidan Roche,M,2006-01-16,IN,Wraps,M_TCR_2_APF,53.98,56,142.88,151.95,-158.76,151.95,92.99,99.79,-102.06,99.79,156.49,-174.63,183.7,183.7,435.45,SBD
1,Mason Gibson,M,2005-11-19,IN,Wraps,M_TCR_2_APF,73.66,75,-115.67,115.67,131.54,131.54,79.38,88.45,-95.25,88.45,176.9,190.51,201.85,201.85,421.84,SBD
1,Travis Kewley,M,2006-01-30,IN,Wraps,M_TCR_2_APF,79.83,82.5,147.42,-170.1,-183.7,147.42,92.99,97.52,-117.93,97.52,206.38,-219.99,-449.06,206.38,451.32,SBD
DQ,Omarion Stitts,M,2004-03-24,IN,Wraps,M_TCR_3_APF,68.95,75,129.27,-147.42,170.1,170.1,74.84,88.45,-102.06,88.45,-174.63,-201.85,,,,SBD
1,Luke Howard,M,2005-09-02,IN,Wraps,M_TCR_3_APF,113.4,125,174.63,192.78,-199.58,192.78,108.86,-115.67,115.67,115.67,199.58,215.46,-226.8,215.46,523.9,SBD
2,Jeff Oiler,M,1983-11-14,IN,Single-ply,M_OES_APF,101.83,110,-206.38,229.06,-238.14,229.06,154.22,165.56,-181.44,165.56,197.31,242.67,-265.35,242.67,637.3,SBD
1,Zac Schultz,M,1994-11-16,IN,Single-ply,M_OES_APF,135.17,140,-421.84,-421.84,421.84,421.84,170.1,256.28,265.35,265.35,290.3,310.71,319.78,319.78,1006.98,SBD
1,Jeremy Helton,M,1985-04-28,IN,Single-ply,M_SES_APF,66.9,67.5,158.76,174.63,-451.32,174.63,45.36,52.16,56.7,56.7,172.37,188.24,-201.85,188.24,419.57,SBD
1,Laith Von Dugan Smith,M,2000-02-16,IN,Multi-ply,M_JEM_APF,122.7,125,308.44,335.66,362.87,362.87,124.74,-183.7,183.7,183.7,251.74,263.08,-274.42,263.08,809.66,SBD
1,Benjamin Orkis,M,1990-11-12,IN,Multi-ply,M_OEM_APF,97.07,100,322.05,-342.46,342.46,342.46,190.51,206.38,-215.46,206.38,256.28,272.16,-278.96,272.16,821,SBD
6,Francisco Hernandez,M,2002-04-29,IN,Multi-ply,M_OEM_APF,95.25,100,190.51,204.12,217.72,217.72,-113.4,113.4,-122.47,113.4,161.03,172.37,181.44,181.44,512.56,SBD
DQ,Patrick Warren,M,1986-03-19,IN,Multi-ply,M_OEM_APF,119.75,125,-435.45,-449.06,-449.06,,-310.71,-449.06,-449.06,,-299.37,-449.06,-449.06,,,SBD
1,Regan O'Dell,M,1952-08-03,IN,Raw,M_MR_7_APF,113.17,125,,,,,97.52,-106.59,106.59,106.59,151.95,170.1,-183.7,170.1,276.69,BD
1,Victor O'dell,M,2008-04-10,IN,Raw,M_TR_1_APF,55.11,56,,,,,52.16,-61.23,-61.23,52.16,129.27,145.15,-154.22,145.15,197.31,BD
1,Regan O'Dell,M,1952-08-03,IN,Raw,M_MR_7_APF,113.17,125,,,,,97.52,-106.59,106.59,106.59,,,,,106.59,B
DQ,James Bassett,M,1995-09-01,IN,Raw,M_OR_APF,55.79,56,,,,,-111.13,-111.13,-111.13,,,,,,,B
1,Ross Gardner,M,1995-11-18,IN,Raw,M_OR_APF,93.8,100,,,,,131.54,145.15,-154.22,145.15,,,,,145.15,B
1,Willy J Sanders,M,1989-07-20,IN,Raw,M_SR_APF,138.35,140,,,,,165.56,174.63,181.44,181.44,,,,,181.44,B
1,Victor O'dell,M,2008-04-10,IN,Raw,M_TR_1_APF,55.11,56,,,,,52.16,-61.23,-61.23,52.16,,,,,52.16,B
1,David Glass,M,1968-03-25,IN,Raw,M_MR_4_APF,109.27,110,,,,,,,,,240.4,260.82,272.16,272.16,272.16,D
1,Regan O'Dell,M,1952-08-03,IN,Raw,M_MR_7_APF,113.17,125,,,,,,,,,151.95,170.1,-183.7,170.1,170.1,D
1,David Glass,M,1968-03-25,IN,Raw,M_OR_APF,109.27,110,,,,,,,,,240.4,260.82,272.16,272.16,272.16,D
1,Victor O'dell,M,2008-04-10,IN,Raw,M_TR_1_APF,55.11,56,,,,,,,,,129.27,145.15,-154.22,145.15,145.15,D
2,Kameron Beard,M,2008-03-18,IN,Raw,M_TR_1_APF,52.39,56,,,,,,,,,83.91,90.72,102.06,102.06,102.06,D
